module gitlab.com/llentini/movies-ticket-service

go 1.22.0

require (
	github.com/golang-jwt/jwt/v5 v5.2.0
	github.com/golang/mock v1.6.0
	github.com/google/uuid v1.6.0
	github.com/stretchr/testify v1.8.4
	golang.org/x/crypto v0.0.0-20191011191535-87dc89f01550
)

require (
	github.com/davecgh/go-spew v1.1.1 // indirect
	github.com/pmezard/go-difflib v1.0.0 // indirect
	gopkg.in/yaml.v3 v3.0.1 // indirect
)
